Il	O
est	O
élu	O
député	O
le	O
5	O
juin	O
1988	O
dans	O
la	O
1	O
re	O
circonscription	O
de	O
la	O
Vendée	O
.	O
Réélu	O
en	O
1993	O
,	O
en	O
1997	O
et	O
en	O
2002	O
,	O
il	O
fait	O
partie	O
du	O
groupe	O
UDF	ORGANIZATION
.	O
