Noboru	PERSON
Takeshita	PERSON
(	O
竹下	O
登	O
26	O
février	O
1924	O
--	O
19	O
juin	O
2000	O
)	O
fut	O
le	O
74	O
e	O
premier	O
ministre	O
du	O
Japon	O
entre	O
le	O
6	O
novembre	O
1987	O
et	O
le	O
3	O
juin	O
1989	O
.	O
Il	O
est	O
né	O
dans	O
la	O
préfecture	O
de	O
Shimane	O
.	O
