Record date: 2117-03-10

 
SDU Admission

PATIENT:    Usrey, Anthony
MR:      6444877
ADMIT DATE:  March 10, 2117  
CODE STATUS:  Full
ATTENDING:   Dr. Updyke (Ward)
PCP:   Iacono, Cruz

CC:   syncope, AS

HPI:  
54 y/o Columbian speaking male with HTN, HL who was in Columbia and had syncopal episode 2 days ago after climbing 4 flights of stairs. There are conflicting stories of his prodrome   some notes mention that his syncope was precipitated by chest pain, however he denies this and only reports some dyspnea and fatigue as he was climbing the stairs.  He believes he was unconscious for a few minutes. On waking up, he reported some nausea and vomiting.  He was taken to a hospital in Columbia where he had EKG changes and CK was 308 and troponin was 0.19.  Echo at the OSH in Columbia was showed AS with peak AV gradient 62, mean 38. Valve size was not commented upon. He was offered surgery however he elected to come back to America and now presents to the ER.  He has been asymptomatic since this episode and presently denies chest pain, dizziness, SOB, palpitations.  Denies any history of syncope in past. Denies history of seizures in past.

ER: 97.6, 77, 161/84, 20, 97% on RA. Got ASA, lopressor 25.

PMH:
HTN
HL
L Achilles repair
L Medial mensical repair

MEDS:
Lisinopril 20mg PO QD
Lipitor 40mg PO QD

In Columbia was started on the following but is not taking:
Propranolol 10mg PO TID
Diovan
Asa 81mg PO QD
Simvastatin
Enoxaparin 70mg BID

ALLERGIES: NKDA
 
SOCIAL HISTORY:   
No tobacco, Occ Etoh, Spanish speaking, originally from Columbia, Divorced lives alone in Johnson City. Works for Pilgrim's Pride.

FAMILY HISTORY:   Brother-MI in 50s

PHYSICAL EXAM
VITALS:   98.2 59, 145/88, 16, 98%
Gen: awake, alert, NAD
HEENT: EOMI
OP: OP Clear
Neck: No JVD, murmur radiated to B carotids, No LAD,    parvus carotids   , no tardus
CV: RRR nl s1 s2 harsh III/VI SEM heard throughout  precordium, no LV heave
Pulm: CTA B
Abd: + b.s, NT, ND, soft
Ext: 1+ DP, no edema
Neuro: grossly intact

LABS:  
   Chemistry :
Sodium (Stat Lab)                137                       (135-145)      mmol/L
Potassium (Stat Lab)             4.5                       (3.4-4.8)      mmol/L
Chloride (Stat Lab)              106                       (100-108)      mmol/L
CO2 (Stat Lab)                   24.8                      (23.0-31.9)    mmol/L
BUN (Stat Lab)                   17                        (8-25)         mg/dl
Creatinine (Stat Lab)            1.0                       (0.6-1.5)      mg/dl
Glucose (Stat Lab)               101                       (70-110)       mg/dl

   Hematology:  
WBC                              7.7                       (4.5-11.0)     th/cmm
HCT                              37.7             L        (41.0-53.0)    %
HGB                              13.0             L        (13.5-17.5)    gm/dl
RBC                              4.22             L        (4.50-5.90)    mil/cmm
PLT                              185                       (150-350)      th/cumm
MCV                              89                        (80-100)       fl
MCH                              30.8                      (26.0-34.0)    pg/rbc
MCHC                             34.5                      (31.0-37.0)    g/dl
RDW                              13.6                      (11.5-14.5)    %
PT                               12.4                      (10.3-13.2)    sec
PT-INR                           1.1
APTT                             26.6                      (22.1-34.0)    sec

  Cardiac
Creatine Kinase Isoenzymes       NEGATIVE                  (NEG)
Troponin-I                       NEGATIVE                  (NEG)

   Echo: 
At OSH in Columbia:  LVH, nl fxn, AV calcified. Max gradient 62, mean 38mmHg. Mild Aortic regurg.

   EKG: 
Sinus brady at 55 bpm, nl axis, 1st degree AV block, STD/TWI in I, II, III, aVF, V5, V6. LVH pattern w/ J pt elevation in V1-V3.  

ASSESSMENT & PLAN
54 y/o Spanish speaking male with HTN, HL presents to PNC after syncopal episode 2 days ago and was found to have AS at OSH.  Mean gradient of 38mmHg indicates moderate disease.  Prognosis after syncopal episode due to AS is 3 years.

AS:  Monitor for syncope, CHF, ischemia
Repeat Echo to assess valve area, gradients
Afterload reduction--start on ACE
Cont statin, check lipid panel
Avoid nitrates, diuretics
His symptomatic AS warrants w/u for AVR
Ischemia: EKG changes c/w LVH although doesn   t quite LVH meet criteria. Did have + enzymes at OSH, although denies hx of chest pain. Positive biomarkers ? due to coronary insufficiency in the setting of AS.
Cont ASA, lipitor
Cycle enzymes
Will likely need coronary angiography before AVR
Hyperlipidemia
Lipitor
Prophylaxis
Nexium
Enoxaparin
Code
Full

__________________________________
Jennifer Yuan, MD 67404




****************************************************************************************************
Record date: 2117-07-12



  Date of Consult:   7/16/17                                    

  Anthony Usrey  MRN: 644-48-77                                                                                                      

Admit date:  7/12/17   Heather O. Shelton, N.P.                                                                		



INDICATIONS FOR TPN:  Pancreatitis                                

CLASSIFICATION OF MALNUTRITION: NSPCM  



HPI:	Patient is a 54- year old male w/pancreatitis, NPO, was on TPN @ OSH. Transferred to PNC for further management. TPN off for 2 days (7/14-7/15), noPO's for about 15 days per pt. Anticipate NPO > 1wk. 



PMH:	CHF, HTN, hyperlipidemia.

PSH:   Aortic valve replacement 3/17, ERCP with sphincterotomy (7/07),

           CABG.



ROS:	CV:  Stable

PULM:  On RA, O2 sats 96% on nebs.

GI:    abdominal pain,    pancreatitis,    flatus, no BM, no N/V.

	

MEDICATIONS:  Rantidine, Abx, Heparin, Sliding scale.

ALLERGIES:    NKDA 



PERTINENT LAB DATA: Na: 138  K: 3.3   CL: 102   HC03: 26.3  BUN: 12  CREAT: 0.8  Glucose: 121  Ca: 7.8 PHOS: 2.6  MG: 1.5   Alb: 2.3  Amy/Lips 162/34.9   Check Trigs.  Last 157 @ 7/14.  



ANTHROPMETRICS	HT: 5' 11"	WT: 215 lbs. /98 Kg	

IBW: 172lbs. / 78 Kg       126 % IBW     ABW:  183 lbs ./ 83 Kg

Wt. Change stable   Body Mass Index (BMI)   30   (30-34.9 obese)

Estimated Nutritional Requirements:  Maintenance 		

FLUID:   25-30cc/Kg = 2075-2490cc/day   Kcal/Kg Range:  25Kcal/Kg = 

2075 Kcal     



Protein Requirements: (1- 1.5 gms/Kg/day) = 83 - 125 gms/day.



PHYSICAL EXAM: General:  Large male lying in bed in mild distress.



HR: 89  BP: 130/62   RR 18   T 98?  CV: RRR  Resp: (B) expiratory

wheezes.        



GI/GU: Abdomen distended, firm,    tenderness,    BS.   Skin:  Warm,

dry, no rashes. 



ASSESSMENT & PLAN	Patient will be started on  70/100/25  per liter  at 50 cc/hr.  This will provide the patient with 84 gms of protein and 1044 Kcals/day.  Adjust to goal.



TPN Goal:   2075 Kcal (=25 Kcal/Kg) / protein 125 gm (= 1.5 gm/kg)                                

				

VENOUS ACCESS (x) PICC LINE   (   ) HICKMAN   (   ) PA LINE   (   ) TLC   

 (  )  PORTCATH            Triple lumen PICC confirmed in PNC.





Charles Zylstra, RPH, BCNSP/NSU

Iman Anders, (65985)

___________________

Signature of Examiner







______________________________________________

Gianna Irish, M.D.





****************************************************************************************************
Record date: 2117-08-26

 Usrey, Anthony
MRN: 6444877
DOB:  8/11/2062
August 26, 2117

Sisters Of Providence Hospital

CC: f/u pancreatitis

HPI:  55 y.o. male Columbian speaking (hospital interpreter present) presents for follow up.  He was admitted to PNC on 7/12/17 for further management of his pancreatitis secondary to an ERCP/spincterotomy that was preformed at an outside hospital.  He had a prolonged stay that included NPO, IVF, antibiotics, and TPN.  Further management included management of pulmonary edema and anticoagulation as the patient is on Coumadin at baseline secondary to a heart valve.  He was eventually transitioned to a diet and the TPN stopped.  He represents today for follow up c/o epigastric pain "nails" intermittently at night.  Pain noted on going to sleep but does not stop sleep and he does not awaken in the night from it.  He continues on his antibiotic and will complete its course.

ROS:  no fever/chills, no nausea/vomiting, taking in good oral solids/liquids, occ abdominal pain at present none, no change in bowel or urinary habits.

Exam:  
Temp: 98.2F
Abdo: slightly round, soft, nondistended, minimal tenderness LUQ, no masses, +BS

Plan:
1.  continue oral antibiotics til course is complete
2.  return in 1-2 weeks for follow 
3.  return sooner fever/chills, n/v, abdominal pain

Case discussed with and seen by Dr Hugh Delarosa



Helen Ochs NP



****************************************************************************************************
Record date: 2118-01-08





Garner Medical Clinic Internal Medicine 
Attending: Dr Mariusz Soto, MD
Senior:  Gregory Xing, MD 
Intern: Frances Justus, MD
Medical Students: Robert Joshi, Sylvia Cordova.




Patient Name: Usrey, Anthony
MR#: 6444877
Date: 01/08/2118
--
CC: scheduled for surgery on 1/13/18 


HPI: 
Patient is a 54 y.o. male with h/o aortic valve replacement, CHF, and HTN who presented to PNC as a transfer from Montebello Convalescent Hospital with a diagnosis of post-ERCP pancreatitis. The patient was admitted to Montebello Convalescent with a history of RUQ pain that began on July 3rd. He was found to have choledochal stones and underwent an ERCP with sphincterotomy on July 07. Subsequent to this he developed a bout of generalized abdominal pain two days later and he was noted to have a marked and new increase in his amylase and lipase levels (3191 and 2171, respectively), diagnosed as acute post ERCP pancreatitis and transferred to PNC for further management.
Dr Gregory Xing explained to him via an interpreter and with images of his CT scan that he has gallstones and pancreatic pseudocysts that have persisted as compared to his last CT in July 2117.
The procedure of open cholecystectomy with Roux en Y drainage of pancreatic psudocyst was explained to him and he was consented. 


He will be an inpatient 3 days prior to surgery for transition from Coumadin to heparin / lovenox therapy.
He is presently doing well, with no fevers or abd pain. He is eating well and has returned to his normal life.


PMH: S/p mechanical aortic valve replacement, CHF, HTN, hyperlipidemia
--
PSH: CABG, AVR
--
Meds: Lisinopril 40 MG QD
Coumadin 5 MG QHS
Lipitor 40 mg QD.


Allergies: NKDA
--
Physical Exam: 


CV: RRR (+) S1/S2, 2+ radial pulses, audible mechanical valve click
Pulm: CTAB
Abdomen: Abdomen soft. He is completely nontender.
Ext: No e/c/c.
--
Imaging:
1. CXR: Bilateral pleural effusions, no free air under the diaphragm seen.
2. CT scan from OSH of abdomen: reveals phlegmon in the lesser sac and gas in both the biliary tree as well as the portal vein.
3. CT scan from 10/10/17 at PNC: Overall decrease in abdominal phlegmonous change, with interval development of a 13 x 5.4 x 4.8 cm well defined collection anterior to the pancreas.
4. CT from 1/02/18: No significant change in hypodense lesions anterior    to the pancreatic body/tail and tail most consistent with pseudocysts.
     Cholelithiasis.
     Diverticulosis without diverticulitis.


Assessment/Plan: 54 y.o. male with post-ERCP pancreatitis which is not responding to conservative management


-Cardiology consult.
-Anesthesia pre-op clearance
-Home meds.
-d/c Coumadin
-Start heparin drip after stat labs (check PTT, INR)
-Regular diet.




Patient has been seen by Gregory Xing, senior resident SOPH Internal Medicine






Frances Justus, MD
PNC Surgery







****************************************************************************************************
Record date: 2118-04-15


	CARDIOLOGY
	

	PARK NICOLLET CLINIC
	


	Reason for visit:
   55 y/o Columbian male with a history of HTN, hyperlipidemia, severe AS s/p AVR (St. Judes) in 3/17 and recent composite arortic homograft replacement for MRSA/VISA endocarditis presenting for follow-up. 


	Interval History:
   The patient's complicated cardiac history dates back to 3/17 when he underwent mechanical AVR for symptomatic severe AS.  He had preserved LV function and pre-operative cardiac catheterization showed multi vessel non-obstructive CAD.  He initially did well, but had a prolonged hospitalization in 7/17.  At that time, he developed acute cholecystitis and post-ERCP pancreatitis which was complicated by phlegmon and pseudocyst formation.  He was admitted to PNC in 1/18 for elective open cholecystectomy and roux-en-Y cyst-jejunostomy.  He underwent the GI surgery on 1/11/18.  His post-operative course was complicated by recurrent GIB upon re-initiation of anti-coagulation for the mechanical AVR that prolonged his hospital stay. 

Unfortunately, he developed line-associated bactermeia and sepsis 4 weeks into the hospitalization.  He developed high fevers on 2/07/18 ad he had serial cultures positive for MRSA that had intermediate sensitivity to Vancomycin.  He was initially treated with Vancomycin and Gentamicin with addition of Rifampin later in the course of treatment.  He developed progressive PR prolongation on ECG and  a TTE on 2/10/18 and TEE on 2/11/18 showed vegetations on the aortic prosthesis with evidence of annular involvement with abscess.  A follow-up TEE on 2/17/18 showed worsening aortic root abscess and he was ultimately taken to the OR by Dr. Elrod on 2/17/18.  The intraoperative findings were notable were notable for severe aortic root involvement and he underwent composite aortic homograft replacement that was complicated by severe RV failure.  On POD 0, he had recurrent malignant arrhythmias (VT/VF) which required ~ 50 defibrillations and open cardiac massage.  A TEE done after stabilization showed global akinesis and severe TR, and preserved LV function.  Emergent coronary angiogram showed evidence of RCA vasospasm.  An IABP was placed and he was treated with beta blockade and for vasospasm.  HE was taken to the OR for closure on 2/22/18.

His course was subsequently notable for ARF which transiently required CVVH, development of HIT, and vascular emboli to the right lower extremity which led to dry gangrene og the right 3rd digit. ABI testing revealed no evidence of PAD.  He was followed by ID and was placed on daptomycin and Bactrim. He was seen by Vascular surgery and was not deemed to require any surgical intervention and was scheduled for outpatient follow up.  With supportive care, he was successfully weaned off IABP and ventilatory support and transferred to the step down unit.  His course there was notable for mild hyperkalemia that was felt to be related to Bactrim induced RTA. He also had severe depression that was felt to be related an adjustment disorder. He was discharged to a rehab facility on 3/22/18 and was discharged from rehab 12 dyas ago.

Since discharge, he reports doing relatively well. He reports fatigue and DOE after walking up a flight of stairs.  He is able to walk up to 15-20 minutes continuously.  He denies any chest pain, dyspnea at rest, PND, orthopnea, LE edema, palpitations, syncope, or pre-syncope. He also denies any fevers, chills, or weight loss. He has been seen in follow up by Dr. Infant-Nickel in ID earlier this month.  He was noted to be doing relatively well but still had an elevated ESR and CRP.  The plan is continue a prolonged oral taper of Bactrim.  He has completed a 6 week course of daptomycin.


	Past medical history:
   1. MRSA/VISA prosthetic aortic valve endocarditis. Originally underwent AVR for severe AS on 03/13/2117. Developed aortic endocarditis and aortic root abscess as a complication of line sepsis in 2/18 and underwent composite aortic homograft replacement on 2/19/18. Intraoperatively developed severe RV failure.
2. RV failure. Complication of aortic homograft surgery. TEE on 2/20/18 showed severe RV hypokinesis and severe TR.
3. HIT. Developed HIT post-operatively after aortic homograft replacement in 2/18.
4. Coronary artery disease. Preoperative cardiac catheterization on 03/11/2117 demonstrated 30% focal narrowing in the left main; proximal 30% lesion in the LAD; 50% lesion in D1; mid 50% lesion in the left circumflex, and normal RCA. 
5. Dry gangrene of right 3rd digit of right foot thought to be secondary to an embolic complication of IABP versus HITT.
6. Hypertension. 
7. Hyperlipidemia.



	

	Changes to Allergies
	
Heparin - reaction: Thrombocytopenia or Anemia [reviewed]


	Medications (Confirmed):

	
ascorbic acid  250mg po daily
aspirin  81 mg po daily
atenolol  25mg po BID
Bactrim DS tablets 
Coumadin  5 mg PO at bedtime
Lasix  40mg po BID
Lipitor  40 mg PO daily
Protonix  40mg po daily
Silvadene 
zinc 


	Review of systems:
   As per HPI.



Physical examination:
	
-BMI:   
-Pulse: 72  
-resp. rate: 16  
-weight: 178  lbs.
-General:   No acute distress.
-Heent:   Oropharynx clear
-Neck:   2+ symmetric carotid pulses with no bruits.  JVP of 12-14  cm with prominent V waves.
-Chest:   Decreased BS and dullness to percussion over the right base. Otherwise CTAB.
-Cardiac:   Discrete non-displaced PMI. No clear RV heave. Sternal wound well healed with no sternal click. RRR. Normal S1 and widely split  S2.  Soft 1-2/6 SEM. No diastolic murmur. 
-Abdomen:   Soft, non-tender, non-distended with pulsatile liver.
-Extremities:   No lower extremity edema. Tip of 3rd toe on right foot has dry gangrene but no exudate or open ulceration. 1+ DP on the right and 2+ DP on left.
-Neuro:   A&amp;O x3
-BP: 107/60  


	EKG:
   NSR 75 with 1st degree AV  block, RBBB, and LAFB.

Selected recent labs:

	
		
	


	Assessment and plan:
   55 y/o Columbian male with a history of HTN, hyperlipidemia, severe AS s/p AVR (St. Judes) in 3/17 and recent composite arortic homograft replacement for MRSA/VISA endocarditis. The patient had a prolonged hospitalization with a complicated post-operative course that was notable for RV failure, ARF, HIT, vascular emboli to the right foot, and mild hyperkalemia.  At this point, he appears close to euvolemia by exam and has no evidence of decompensated CHF. HE has evidence of severe TR on exam. From an ID perspective although all recent cultures have been negative, the resistance pattern of his MRSA and persistent elevation of ESR and CRP are concerning, and he will require a prolonged course of anti-biotics as outlined by Dr. Infant-Nickel.  His ARF has resolved and his vascular embolic events to the right foot are not an active, acute issue as he only has dry gangrene and no evidence of infection. 

PLAN:
1. PVE endocarditis.  He is s/p composite aortic homograft replacement. He will need a prolonged Bactrim taper per ID. We will obtain CBC, chem panel, LFTs, ESR, CRP per ID today. He is currently on coumadin and will likely need this for a total of ~6-8 weeks post-operatively.  We will continue coumadin pending his visit with Dr. Elrod next week.
2. RV failure.  Currently well compensated with no evidence of systemic congestion.  We will continue his current dose of lasix.  Dry weight ~175-178 lbs. I will obtain a repeat TTE to reassess RV and TR severity.  We anticipate some recovery of RV function.  
3. ARF. Resolved. We will check a follow up chem panel today.
4. Right foot gangrene. Involvement of the right 3rd toe with no wet gangrene or signs of infection.  ABI testing in 3/18 showed no PAD.  He will need outpatient follow up with Dr. Werner in vascular surgery.
5. CAD. Non-obstructive disease.  Continue ASA, atenolol and lipitor.  We will hold on ACE-inhibitor given hyperkalemia issues.
6. Hyperkalemia.  Likely secondary to RTA related to Bactrim.  Ww will check follow up chem panel today.  He will need monitoring of K and we can consider kayexlate therapy if he has persistent elevations for the duration of therapy with Bactrim.   

Patient will return to clinic in 3 months for follow-up. Patient seen with Dr. Calhoun.

Changes to Medications this visit
	
Coumadin 3 mg  PO at bedtime

	
Jonathan Forrester, Fellow pager #08374

	
Signed electronically by  Jonathan Forrester, Fellow
Document Status: Final



****************************************************************************************************