Record date: 2083-01-12

 

CCU Admission Note
Patient is transferred from Florida Hospital Orland

Otto Qazi
MR# 527-62-21
Date of Admission: January 12, 2083
Admitting JAR: Hunter Hayden, MD
Attending:  Quinten Prado, MD

Reason for Transfer: STEMI

HPI:   
58yoM with h/o CAD, HTN, smoking; presents to FHO with chest pain and found to have lateral STEMI.  He experienced mild central chest pain on the night prior to admission while working outdoors, pain resolved after about an hour and he attributed it to GERD.  However, he awoke at 5:30 AM on the morning of presentation with recurrence of chest pain, 6/10 severity, lasted for about 15-30 minutes and then resolved with Maalox.  Pain recurred about 9:30, of similar severity, associated with dyspnea, diaphoresis, non radiating, non-pleuritic.  He again took zantac and Maalox without improvement.  After 15 minutes he walked to the local hospital ER and during walk the pain increased in severity to 8/10.  He describes the pain as similar to his previous MI.

Upon arrival to FHO found to have ST elevations antero-lateral.  Given lopressor, heparin, integrillin, morphine, ASA, and medivac to WCH arranged for cath.  He states that by the time he was in transit, his chest pain had resolved.  He arrived at WCH, was taken directly to cath lab, found to have a proximal LAD lesion with cypher stent placed.  He remained chest pain free following the procedure and was sent to the CCU in stable condition.

At baseline he states he can walk    a couple    of miles without rest, he rarely takes stairs on a daily basis.  He smokes profusely and has little interest in quitting.  He feels he has had no occurrence of chest pain since last one.  However, he does report that his plavix was stopped recently, and he has difficulty affording all his medications.

ROS:  
Gen: denies f/c/ns
HEENT: no dysphagia, throat pain
Chest: no cough, dyspnea
CV: denies orthopnea, pnd
GI: no hematochezia, melena
Skin: no rash

PMHx:
CAD:
Cath 1/73: 80% prox RCA stenosis w/ thrombus, mod D1 stenosis, clear Lcx.  LV gram EF 69%, normal motion.
Cath 9/81: Critical proximal ramus lesion.  RCA with proximal 40% lesion, patent RCA stent. Patent left main, apical LAD with 99% lesion with L-L collaterals.  Cfx 35% mid lesion. Normal LVEDP, no AS.  LVf 50-55%.
Also with h/o RCA stent, unclear where procedure was done and patient unable to recall details.
HTN
Hyperlipidemia


Medications on Admission:
Toprol XL 75mg daily
ASA 81mg daily
Plavix 75mg daily
Lipitor (unknown dose)
MVI

Allergies:  	
NKDA

SH:  	
Works as an IS consultant in East Liverpool.  Also a counsellor.  He has h/o drug/ETOH abuse but denies x 25 years.  He is not married, no children.
Tobacco: + for 40 years 2-4ppd.

FH:	
Mother: deceased in 60   s with leukemia
Father: extensive CAD, with first MI in 50   s.  Had MI x7, died in 70s.

Exam:   VS:	T 97.2  HR 57  BP  102/62  RR 18  O2 96%
General:  obese, non-toxic appearing WM, NAD
HEENT:   NC/AT, MM dry, OP clear without lesion to oral mucosa
Skin:	no evidence of rash, wound. 
Neck:  	Supple, full ROM, 2+ carotids w/o bruits, no thyromegaly or nodules, no nodes
Chest: 	CTA B, no crackles, rhonchi, wheeze. 
CVS:  	PMI nondisplaced, RRR nl S1 S2, no m/r/g
Abd:  	Soft/nontender/non-distended
Extr:  	no c/c/e 2+ DP's bilaterally, no hematoma or bruit femoral B.  Oozing from R femoral stick.
Neuro: AAOX3, MS nl, non-focal/non-lateralizing.
DATA:
NA        	133(L)    	          	          	          	          
K         	3.9       	          	          	          	          
CL        	107       	          	          	          	          
CO2       	22.4(L)   	          	          	          	          
BUN       	11        	          	          	          	          
CRE       	0.9       	          	          	          	          
GLU       	230(H) 

CK-MB     	11.3(H)   	          	          	          	          
TROP-T    	0.18(H) 

WBC       	9.7       	          	          	          	          
RBC       	4.14(L)   	          	          	          	          
HGB       	13.5      	          	          	          	          
HCT       	36.6(L)   	          	          	          	          
MCV       	88        	          	          	          	          
MCH       	32.7      	          	          	          	          
MCHC      	37.0      	          	          	          	          
PLT       	159       	          	          	          	          
RDW       	13.1

CXR:

EKG:      	          	          	          	          
FHO presentation:
Sinus at 80bpm, Left axis, normal intervals, 1-2mm ST elevations/hyperacute TW V2-V3, 1mm STelevation I/aVL, 1mm ST depression/TWI II/III/aVF.

Admission to CCU s/p cath:
Resolution of ST elevations I/aVL, persistent TWI aVL, Qwaves V2-V3, 1mm STE V2-V3, TW height has improved; ST depressions inferior leads have resolved.        

CXR:No focal opacity or airspace disease.  No evidence of CHF.          
___________________________________________
Impression:
58yoM with risk factors including CAD, HTN, HL, presents with evidence of antero-lateral infarction by EKG and history transferred from OSH for cath and PCI.  He is stable post-cath, with resolving EKG changes; had cypher stent to proximal LAD felt to be the culprit lesion due to the EKG changes.  He continues to be chest pain free post-cath.

Plan: 
Ischemia:
BB, ASA 325mg, plavix, lipitor 80mg daily.
Continue integrillin for 12 hours
Follow markers, daily EKG
Lipids, HbA1c
Cardiac rehab, smoking cessation consult, nutrition counseling
Rhythm: Currently sinus rhythm
lopressor
Monitoring in CCU for arrhythmia
Pump:  No h/o CHF
 Given anterior infarct, will obtain TTE
Prophy:
Nexium, when off integrillin consider add lovenox prophylactically
Dispo:  To SDU when stable x 24h and markers peak.

_________________________________
L. Hunter Hayden, MD
Pager #50173




****************************************************************************************************
Record date: 2083-10-18


	CARDIOLOGY
	

	WETZEL COUNTY HOSPITAL
	


	Reason for visit:
   Mr Qazi returns for followup of his coronary disease.


	Interval History:
   He was recently transferred in January to the WCH after presenting to the Florida Hospital Orlando with a non ST segment elevation MI in the anterolateral zone. He underwent angioplasty and stenting of his proximal LAD using a 2.5 x 13 mm Cypher drug eluting stent.

He has no symptoms of chest pain or pressure, no palpitations dyspnea or orthopnea.

He has gained some weight and needs to work on that.


	Past medical history:
   1. CAD:
-Cath 1/73: 80% prox RCA stenosis w/ thrombus, mod D1 stenosis, clear Lcx.  LV gram EF 69%, normal motion. 
-Cath 9/81: Critical proximal ramus lesion.  RCA with proximal 40% lesion, patent RCA stent. Patent left main, apical LAD with 99% lesion with L-L collaterals. Cfx 35% mid lesion. Normal LVEDP, no AS.  LVf 50-55%.
-Also with h/o RCA stent, unclear where procedure was done and patient unable to recall details.
2. HTN
3. Hyperlipidemia

	


	Medications (Confirmed):

	
Ecotrin  325 mg po daily
Lipitor  80mg po daily
nitroglycerin  0.4 mg sl every 5 minutes PRN chest pain
Plavix  75mg po daily
Toprol XL  50 mg mg po bid
Tricor  48mg po daily


	Family history:
   Mother: deceased in 60's with leukemia
Father: extensive CAD, with first MI in 50's.  Had MI x7, died in 70s.



	Social history:
   He runs  Mason house,a halfway home.  He has h/o drug/ETOH abuse but denies x 25 years.  He is not married, no children.
Tobacco: + for 40 years 2-4ppd.



	Review of systems:
   There are no new findings except as above.

All the following a normal or negative: General: Unexpected weight gain or weight loss, night sweats fever or chills. Head and neck: Headaches, dizzy spells hoarseness. Respiratory: Cough wheezing, sputum production, hemoptysis. Cardiovascular: See history above. Gastrointestinal: Frequent heartburn or indigestion, difficulty swallowing, nausea vomiting jaundice, unusual constipation or diarrhea, black or bloody stools. Urinary: Frequent urination at night, urinary infections, kidney stones, blood in the urine. Neurologic: Transient paralysis, seizures, loss of vision in one eye, numbness or tingling in the feet. Hematologic: Easy bruising, recurrent infections. Skin: New rashes or eruptions, poor healing of foot sores, moles changing in size or color. Endocrine: Polyuria, polydipsia, heat or cold intolerance. Musculoskeletal: Low back pain, joint pains, joint swelling.


Physical examination:
	
-temp:    afebrile
-Pulse: 60  
-resp. rate: 14  
-General:   No acute distress.
-Skin:   No rashes, anicteric.
-HEENT:   Unremarkable
-Neck:   Carotids 2+ without bruits. JVP no jugular venous distention.
-Chest:   Clear to auscultation and percussion.
-Cardiac:   Left ventricular impulse discrete and nondisplaced. Regular rate and rhythm, normal S1 and S2, with no S3 or S4. There were no murmurs, clicks or rubs.
-Abdomen:   Normal bowel sounds, soft and nontender, with no hepatosplenomegaly or masses appreciated.
-Extremities:   No edema. 2+ PT bilateral
-BP: 120/70  


	EKG:
   Normal sinus rhythm with incomplete right bundle branch block. there are very small Q-waves in leads V2 V3 V4 and V5 The tracing is  Unchanged

Selected recent labs:

	 In April following his last visit his total cholesterol was 104, triglycerides 70, HDL 40 and LDL 50. Glycohemoglobin was 8.5.
	


	Assessment and plan:
     He is doing quite well at this point and has no symptoms he will remain on his present medications and I will see him again in another year.

	
Quinten B. Prado, MD pager #82910

	
cc:  Ezra Tovar M.D.

	
Signed electronically by  Quinten B. Prado, MD
Document Status: Final



****************************************************************************************************
Record date: 2085-11-05


	CARDIOLOGY
	

	WETZEL COUNTY HOSPITAL
	


	Reason for visit:
   Mr Qazi returns for followup of his coronary disease.


	Interval History:
   He has no symptoms of chest pain or pressure, no palpitations dyspnea or orthopnea.He specifically denies predictable exertional chest pressure. Thinks he may have tried one TNG inthe course of the last year

He hasbeen active physically and does a considerable amount of scuba diving in addition to his duties at Mason House


	Past medical history:
   1. CAD:
-Cath 1/73: 80% prox RCA stenosis w/ thrombus, mod D1 stenosis, clear Lcx.  LV gram EF 69%, normal motion. 
-Cath 9/81: Critical proximal ramus lesion.  RCA with proximal 40% lesion, patent RCA stent. Patent left main, apical LAD with 99% lesion with L-L collaterals. Cfx 35% mid lesion. Normal LVEDP, no AS.  LVf 50-55%.
-Also with h/o RCA stent, unclear where procedure was done and patient unable to recall details.
He was transferred in January 2083 to the WCH after presenting to the Florida Hospital Orlando with a non ST segment elevation MI in the anterolateral zone. He underwent angioplasty and stenting of his proximal LAD using a 2.5 x 13 mm Cypher drug eluting stent.
2. HTN
3. Hyperlipidemia

	


	Family history:
   Mother: deceased in 60's with leukemia
Father: extensive CAD, with first MI in 50's.  Had MI x7, died in 70s.



	Social history:
   He runs  Mason House,a halfway home.  He has h/o drug/ETOH abuse but clean and sober x 25 years.  He is not married, no children.
Tobacco: + for 40 years 2-4ppd.



	Review of systems:
   There are no new findings except as above.

All the following a normal or negative: General: Unexpected weight gain or weight loss, night sweats fever or chills. Head and neck: Headaches, dizzy spells hoarseness. Respiratory: Cough wheezing, sputum production, hemoptysis. Cardiovascular: See history above. Gastrointestinal: Frequent heartburn or indigestion, difficulty swallowing, nausea vomiting jaundice, unusual constipation or diarrhea, black or bloody stools. Urinary: Frequent urination at night, urinary infections, kidney stones, blood in the urine. Neurologic: Transient paralysis, seizures, loss of vision in one eye, numbness or tingling in the feet. Hematologic: Easy bruising, recurrent infections. Skin: New rashes or eruptions, poor healing of foot sores, moles changing in size or color. Endocrine: Polyuria, polydipsia, heat or cold intolerance. Musculoskeletal: Low back pain, joint pains, joint swelling.


Physical examination:
	
-temp:    afebrile
-Pulse: 60  
-resp. rate: 14  
-Extremities:   No edema. 2+ PT bilateral
-Abdomen:   Normal bowel sounds, soft and nontender, with no hepatosplenomegaly or masses appreciated.
-Cardiac:   Left ventricular impulse discrete and nondisplaced. Regular rate and rhythm, normal S1 and S2, with no S3 or S4. There were no murmurs, clicks or rubs.
-Chest:   Clear to auscultation and percussion.
-Neck:   Carotids 2+ without bruits. JVP no jugular venous distention.
-HEENT:   Unremarkable
-Skin:   No rashes, anicteric.
-General:   No acute distress. Overweight
-BP: 150/90  


	EKG:
   Normal sinus rhythm. There is incomplete right bundle branch block. There are very small Q-waves in leads V2 V3 V4 and V5 The tracing is unchanged

Selected recent labs:
	 He has not had any recent laboratory studies.Lab requisition provided
	


	Impression:
   BP is rising.


	Assessment and plan:
     He is doing quite well at this point and has no symptoms he will remain on his present medications plus HCTZ 25 mg daily and I will see him again in another year.

He'll phone for lab reults.
		Medication List (confirmed)

				CONFIRMED

		- Ecotrin  325 mg po daily

		- hydrochlorothiazide  25mg 1 po daily

		- nitroglycerin  0.4 mg sl every 5 minutes PRN chest pain

		- Plavix  75mg po daily

		- simvastatin  80mg po qpm

		- Toprol XL  50 mg mg po bid

		- Tricor  48mg po daily


	
	

	
Quinten B. Prado, MD pager #82910

	
Signed electronically by  Quinten B. Prado, MD
Document Status: Final



****************************************************************************************************
Record date: 2086-11-04


	CARDIOLOGY
	

	WETZEL COUNTY HOSPITAL
	


	Reason for visit:
   Mr Qazi returns for followup of his coronary disease.


	Interval History:
   He has no symptoms of chest pain or pressure, no palpitations dyspnea or orthopnea.He specifically denies predictable exertional chest pressure. Thinks he may have tried one TNG inthe course of the last year

He hasbeen active physically and does a considerable amount of scuba diving in addition to his duties at Mason House.

He seems to be putting on some weight.

He's D/Ced his HCTZ because of light headedene


	Past medical history:
   1. CAD:
-Cath 1/73: 80% prox RCA stenosis w/ thrombus, mod D1 stenosis, clear Lcx.  LV gram EF 69%, normal motion. 
-Cath 9/81: Critical proximal ramus lesion.  RCA with proximal 40% lesion, patent RCA stent. Patent left main, apical LAD with 99% lesion with L-L collaterals. Cfx 35% mid lesion. Normal LVEDP, no AS.  LVf 50-55%.
-Also with h/o RCA stent, unclear where procedure was done and patient unable to recall details.
He was transferred in January 2083 to the WCH after presenting to the Florida Hospital Orlando with a non ST segment elevation MI in the anterolateral zone. He underwent angioplasty and stenting of his proximal LAD using a 2.5 x 13 mm Cypher drug eluting stent.
2. HTN
3. Hyperlipidemia

	


	Family history:
   Mother: deceased in 60's with leukemia
Father: extensive CAD, with first MI in 50's.  Had MI x7, died in 70s.



	Social history:
   He runs  Mason House,a halfway home.  He has h/o drug/ETOH abuse but clean and sober x 25 years.  He is not married, no children.
Tobacco: + for 40 years 2-4ppd.



	Review of systems:
   There are no new findings except as above.

All the following a normal or negative: General: Unexpected weight gain or weight loss, night sweats fever or chills. Head and neck: Headaches, dizzy spells hoarseness. Respiratory: Cough wheezing, sputum production, hemoptysis. Cardiovascular: See history above. Gastrointestinal: Frequent heartburn or indigestion, difficulty swallowing, nausea vomiting jaundice, unusual constipation or diarrhea, black or bloody stools. Urinary: Frequent urination at night, urinary infections, kidney stones, blood in the urine. Neurologic: Transient paralysis, seizures, loss of vision in one eye, numbness or tingling in the feet. Hematologic: Easy bruising, recurrent infections. Skin: New rashes or eruptions, poor healing of foot sores, moles changing in size or color. Endocrine: Polyuria, polydipsia, heat or cold intolerance. Musculoskeletal: Low back pain, joint pains, joint swelling.


Physical examination:
	
-temp:    afebrile
-Pulse: 60  
-resp. rate: 14  
-weight: 190  lbs.
-General:   No acute distress. Overweight
-Skin:   No rashes, anicteric.
-HEENT:   Unremarkable
-Neck:   Carotids 2+ without bruits. JVP no jugular venous distention.
-Chest:   Clear to auscultation and percussion.
-Cardiac:   Left ventricular impulse discrete and nondisplaced. Regular rate and rhythm, normal S1 and S2, with no S3 or S4. There were no murmurs, clicks or rubs.
-Abdomen:   Obese.Normal bowel sounds, soft and nontender, with no hepatosplenomegaly or masses appreciated.
-Extremities:   No edema. 2+ PT bilateral
-BP: 140/80  


	EKG:
   Normal sinus rhythm. There is incomplete right bundle branch block. There are very small Q-waves in leads V2 V3 V4 and V5 The tracing is unchanged

Selected recent labs:
	 He has not had any recent laboratory studies.Lab requisition provided
	


	Impression:

	


	Assessment and plan:
     He is doing quite well at this point and has no symptoms he will remain on his present medications and I will see him again in another year
		Medication List (confirmed)

				CONFIRMED

		- bupropion extended release  150mg po qam

		- Ecotrin  325 mg po daily

		- nitroglycerin  0.4 mg sl every 5 minutes PRN chest pain

		- Plavix  75mg po daily

		- simvastatin  80mg po qpm

		- Toprol XL  50 mg mg po bid

		- Tricor  48mg po daily

			------------------------------------------------------------

				STOPPED

		- hydrochlorothiazide  25mg 1 po daily


	
	

	
Quinten B. Prado, MD pager #82910

	
Signed electronically by  Quinten B. Prado, MD
Document Status: Final



****************************************************************************************************