En	O
1826	O
,	O
Beslon	LOCATION
(	O
853	O
habitants	O
en	O
1821	O
)	O
absorbe	O
Saint-Fragaire	LOCATION
(	O
248	O
habitants	O
)	O
,	O
à	O
l'	O
est	O
de	O
son	O
territoire	O
.	O
Beslon	O
a	O
compté	O
jusqu'	O
à	O
1200	O
habitants	O
en	O
1846	O
.	O
