La	O
Pologne	O
a	O
été	O
dirigée	O
par	O
des	O
ducs	O
(	O
v.	O
962	O
--	O
1025	O
,	O
1032	O
--	O
1076	O
,	O
1079	O
--	O
1295	O
,	O
1296	O
--	O
1300	O
et	O
1306	O
--	O
1320	O
)	O
et	O
des	O
rois	O
(	O
1025	O
--	O
1032	O
,	O
1076	O
--	O
1079	O
,	O
1295	O
--	O
1296	O
,	O
1300	O
--	O
1305	O
et	O
1320	O
--	O
1795	O
)	O
.	O
La	O
royauté	O
polonaise	O
s'	O
est	O
terminée	O
avec	O
le	O
troisième	O
partage	O
de	O
la	O
Pologne	O
(	O
1795	O
)	O
et	O
l'	O
abdication	O
de	O
Stanislas	PERSON
Poniatowski	PERSON
.	O
La	O
renaissance	O
de	O
la	O
Pologne	O
en	O
1918	O
s'	O
est	O
réalisée	O
sous	O
la	O
forme	O
d'	O
une	O
république	O
.	O
